3.81.245.0 - - [15/Sep/2020:02:04:07 +0200] "GET / HTTP/1.1" 200 26395 meteo-maree.info "-" "\"Mozilla/5.0 (Windows; U; Windows NT 6.1; en-US) AppleWebKit/533.20.25 (KHTML, like Gecko) Version/5.0.4 Safari/533.20.27\"" "-"
195.93.149.0 - - [15/Sep/2020:03:13:22 +0200] "GET /administrator/ HTTP/1.1" 404 823 meteo-maree.info "-" "Mozilla/5.0 (Windows NT 6.0; rv:34.0) Gecko/20100101 Firefox/34.0" "-"
195.93.149.0 - - [15/Sep/2020:03:13:22 +0200] "GET /administrator/index.php HTTP/1.1" 404 823 meteo-maree.info "http://meteo-maree.info/administrator/" "Mozilla/5.0 (Windows NT 6.0; rv:34.0) Gecko/20100101 Firefox/34.0" "-"
195.93.149.0 - - [15/Sep/2020:03:15:16 +0200] "GET /wp-login.php HTTP/1.1" 404 823 meteo-maree.info "-" "Mozilla/5.0 (Windows NT 6.0; rv:34.0) Gecko/20100101 Firefox/34.0" "-"
195.93.149.0 - - [15/Sep/2020:03:15:16 +0200] "GET /wp-admin/ HTTP/1.1" 404 823 meteo-maree.info "http://meteo-maree.info/wp-login.php" "Mozilla/5.0 (Windows NT 6.0; rv:34.0) Gecko/20100101 Firefox/34.0" "-"
195.93.149.0 - - [15/Sep/2020:03:16:45 +0200] "GET /admin.php HTTP/1.1" 404 823 meteo-maree.info "-" "Mozilla/5.0 (Windows NT 6.0; rv:34.0) Gecko/20100101 Firefox/34.0" "-"
195.93.149.0 - - [15/Sep/2020:03:17:19 +0200] "GET /admin HTTP/1.1" 404 823 meteo-maree.info "-" "Mozilla/5.0 (Windows NT 6.0; rv:34.0) Gecko/20100101 Firefox/34.0" "-"
195.93.149.0 - - [15/Sep/2020:03:17:45 +0200] "GET /admin HTTP/1.1" 404 823 meteo-maree.info "-" "Mozilla/5.0 (Windows NT 6.0; rv:34.0) Gecko/20100101 Firefox/34.0" "-"
195.93.149.0 - - [15/Sep/2020:03:18:12 +0200] "GET /admin/ HTTP/1.1" 404 823 meteo-maree.info "-" "Mozilla/5.0 (Windows NT 6.0; rv:34.0) Gecko/20100101 Firefox/34.0" "-"
37.110.44.0 - - [15/Sep/2020:03:21:03 +0200] "GET /administrator/ HTTP/1.1" 404 823 meteo-maree.info "-" "Mozilla/5.0 (Windows NT 6.0; rv:34.0) Gecko/20100101 Firefox/34.0" "-"
37.110.44.0 - - [15/Sep/2020:03:21:03 +0200] "GET /administrator/index.php HTTP/1.1" 404 823 meteo-maree.info "http://meteo-maree.info/administrator/" "Mozilla/5.0 (Windows NT 6.0; rv:34.0) Gecko/20100101 Firefox/34.0" "-"
95.188.147.0 - - [15/Sep/2020:03:24:46 +0200] "GET /administrator/ HTTP/1.1" 404 823 meteo-maree.info "-" "Mozilla/5.0 (Windows NT 6.0; rv:34.0) Gecko/20100101 Firefox/34.0" "-"
95.188.147.0 - - [15/Sep/2020:03:24:46 +0200] "GET /administrator/index.php HTTP/1.1" 404 823 meteo-maree.info "http://meteo-maree.info/administrator/" "Mozilla/5.0 (Windows NT 6.0; rv:34.0) Gecko/20100101 Firefox/34.0" "-"
95.188.147.0 - - [15/Sep/2020:03:26:44 +0200] "GET /wp-login.php HTTP/1.1" 404 823 meteo-maree.info "-" "Mozilla/5.0 (Windows NT 6.0; rv:34.0) Gecko/20100101 Firefox/34.0" "-"
95.188.147.0 - - [15/Sep/2020:03:26:45 +0200] "GET /wp-admin/ HTTP/1.1" 404 823 meteo-maree.info "http://meteo-maree.info/wp-login.php" "Mozilla/5.0 (Windows NT 6.0; rv:34.0) Gecko/20100101 Firefox/34.0" "-"
95.188.147.0 - - [15/Sep/2020:03:28:00 +0200] "GET /admin.php HTTP/1.1" 404 823 meteo-maree.info "-" "Mozilla/5.0 (Windows NT 6.0; rv:34.0) Gecko/20100101 Firefox/34.0" "-"
95.188.147.0 - - [15/Sep/2020:03:28:35 +0200] "GET /admin HTTP/1.1" 404 823 meteo-maree.info "-" "Mozilla/5.0 (Windows NT 6.0; rv:34.0) Gecko/20100101 Firefox/34.0" "-"
95.188.147.0 - - [15/Sep/2020:03:28:57 +0200] "GET /admin HTTP/1.1" 404 823 meteo-maree.info "-" "Mozilla/5.0 (Windows NT 6.0; rv:34.0) Gecko/20100101 Firefox/34.0" "-"
95.188.147.0 - - [15/Sep/2020:03:29:40 +0200] "GET /admin/ HTTP/1.1" 404 823 meteo-maree.info "-" "Mozilla/5.0 (Windows NT 6.0; rv:34.0) Gecko/20100101 Firefox/34.0" "-"
46.151.150.0 - - [15/Sep/2020:03:32:17 +0200] "GET /administrator/ HTTP/1.1" 404 823 meteo-maree.info "-" "Mozilla/5.0 (Windows NT 6.0; rv:34.0) Gecko/20100101 Firefox/34.0" "-"
46.151.150.0 - - [15/Sep/2020:03:32:17 +0200] "GET /administrator/index.php HTTP/1.1" 404 823 meteo-maree.info "http://meteo-maree.info/administrator/" "Mozilla/5.0 (Windows NT 6.0; rv:34.0) Gecko/20100101 Firefox/34.0" "-"
46.151.150.0 - - [15/Sep/2020:03:34:18 +0200] "GET /wp-login.php HTTP/1.1" 404 823 meteo-maree.info "-" "Mozilla/5.0 (Windows NT 6.0; rv:34.0) Gecko/20100101 Firefox/34.0" "-"
46.151.150.0 - - [15/Sep/2020:03:34:18 +0200] "GET /wp-admin/ HTTP/1.1" 404 823 meteo-maree.info "http://meteo-maree.info/wp-login.php" "Mozilla/5.0 (Windows NT 6.0; rv:34.0) Gecko/20100101 Firefox/34.0" "-"
46.151.150.0 - - [15/Sep/2020:03:35:17 +0200] "GET /admin.php HTTP/1.1" 404 823 meteo-maree.info "-" "Mozilla/5.0 (Windows NT 6.0; rv:34.0) Gecko/20100101 Firefox/34.0" "-"
46.151.150.0 - - [15/Sep/2020:03:35:43 +0200] "GET /admin HTTP/1.1" 404 823 meteo-maree.info "-" "Mozilla/5.0 (Windows NT 6.0; rv:34.0) Gecko/20100101 Firefox/34.0" "-"
46.151.150.0 - - [15/Sep/2020:03:36:02 +0200] "GET /admin HTTP/1.1" 404 823 meteo-maree.info "-" "Mozilla/5.0 (Windows NT 6.0; rv:34.0) Gecko/20100101 Firefox/34.0" "-"
46.151.150.0 - - [15/Sep/2020:03:36:19 +0200] "GET /admin/ HTTP/1.1" 404 823 meteo-maree.info "-" "Mozilla/5.0 (Windows NT 6.0; rv:34.0) Gecko/20100101 Firefox/34.0" "-"
66.249.79.0 - - [15/Sep/2020:03:54:25 +0200] "GET /robots.txt HTTP/1.1" 404 823 meteo-maree.info "-" "Mozilla/5.0 (compatible; Googlebot/2.1; +http://www.google.com/bot.html)" "-"
66.249.79.0 - - [15/Sep/2020:03:54:25 +0200] "GET /favicon.ico HTTP/1.1" 404 823 meteo-maree.info "-" "Googlebot-Image/1.0" "-"
66.249.93.0 - - [15/Sep/2020:10:15:38 +0200] "GET / HTTP/1.1" 200 26395 meteo-maree.info "-" "Mozilla/5.0 (X11; Linux x86_64) AppleWebKit/537.36 (KHTML, like Gecko) Chrome/49.0.2623.75 Safari/537.36 Google Favicon" "-"
66.249.93.0 - - [15/Sep/2020:10:15:38 +0200] "GET /img/logotype.png HTTP/1.1" 200 2940 meteo-maree.info "-" "Mozilla/5.0 (X11; Linux x86_64) AppleWebKit/537.36 (KHTML, like Gecko) Chrome/49.0.2623.75 Safari/537.36 Google Favicon" "-"
86.242.38.0 - - [15/Sep/2020:10:16:52 +0200] "GET / HTTP/1.1" 200 26395 meteo-maree.info "-" "Mozilla/5.0 (Windows NT 10.0; Win64; x64) AppleWebKit/537.36 (KHTML, like Gecko) Chrome/85.0.4183.102 Safari/537.36" "-"
86.242.38.0 - - [15/Sep/2020:10:16:52 +0200] "GET /css/font-awesome.min.css HTTP/1.1" 304 - meteo-maree.info "http://meteo-maree.info/" "Mozilla/5.0 (Windows NT 10.0; Win64; x64) AppleWebKit/537.36 (KHTML, like Gecko) Chrome/85.0.4183.102 Safari/537.36" "-"
86.242.38.0 - - [15/Sep/2020:10:16:52 +0200] "GET /css/styles.css HTTP/1.1" 200 28392 meteo-maree.info "http://meteo-maree.info/" "Mozilla/5.0 (Windows NT 10.0; Win64; x64) AppleWebKit/537.36 (KHTML, like Gecko) Chrome/85.0.4183.102 Safari/537.36" "-"
86.242.38.0 - - [15/Sep/2020:10:16:52 +0200] "GET /js/jquery-3.3.1.min.js HTTP/1.1" 304 - meteo-maree.info "http://meteo-maree.info/" "Mozilla/5.0 (Windows NT 10.0; Win64; x64) AppleWebKit/537.36 (KHTML, like Gecko) Chrome/85.0.4183.102 Safari/537.36" "-"
86.242.38.0 - - [15/Sep/2020:10:16:52 +0200] "GET /js/scripts.js HTTP/1.1" 304 - meteo-maree.info "http://meteo-maree.info/" "Mozilla/5.0 (Windows NT 10.0; Win64; x64) AppleWebKit/537.36 (KHTML, like Gecko) Chrome/85.0.4183.102 Safari/537.36" "-"
86.242.38.0 - - [15/Sep/2020:10:16:52 +0200] "GET /img/bg_footer.jpg HTTP/1.1" 304 - meteo-maree.info "http://meteo-maree.info/css/styles.css" "Mozilla/5.0 (Windows NT 10.0; Win64; x64) AppleWebKit/537.36 (KHTML, like Gecko) Chrome/85.0.4183.102 Safari/537.36" "-"
86.242.38.0 - - [15/Sep/2020:10:16:52 +0200] "GET /fonts/Roboto-Bold.woff2 HTTP/1.1" 304 - meteo-maree.info "http://meteo-maree.info/css/styles.css" "Mozilla/5.0 (Windows NT 10.0; Win64; x64) AppleWebKit/537.36 (KHTML, like Gecko) Chrome/85.0.4183.102 Safari/537.36" "-"
86.242.38.0 - - [15/Sep/2020:10:16:52 +0200] "GET /fonts/Roboto-Medium.woff2 HTTP/1.1" 304 - meteo-maree.info "http://meteo-maree.info/css/styles.css" "Mozilla/5.0 (Windows NT 10.0; Win64; x64) AppleWebKit/537.36 (KHTML, like Gecko) Chrome/85.0.4183.102 Safari/537.36" "-"
86.242.38.0 - - [15/Sep/2020:10:16:52 +0200] "GET /fonts/Roboto-Regular.woff2 HTTP/1.1" 304 - meteo-maree.info "http://meteo-maree.info/css/styles.css" "Mozilla/5.0 (Windows NT 10.0; Win64; x64) AppleWebKit/537.36 (KHTML, like Gecko) Chrome/85.0.4183.102 Safari/537.36" "-"
86.242.38.0 - - [15/Sep/2020:10:16:52 +0200] "GET /fonts/Roboto-Black.woff2 HTTP/1.1" 304 - meteo-maree.info "http://meteo-maree.info/css/styles.css" "Mozilla/5.0 (Windows NT 10.0; Win64; x64) AppleWebKit/537.36 (KHTML, like Gecko) Chrome/85.0.4183.102 Safari/537.36" "-"
86.242.38.0 - - [15/Sep/2020:10:16:52 +0200] "GET /fonts/fontawesome-webfont.woff2?v=4.7.0 HTTP/1.1" 304 - meteo-maree.info "http://meteo-maree.info/css/font-awesome.min.css" "Mozilla/5.0 (Windows NT 10.0; Win64; x64) AppleWebKit/537.36 (KHTML, like Gecko) Chrome/85.0.4183.102 Safari/537.36" "-"
86.242.38.0 - - [15/Sep/2020:10:16:53 +0200] "GET /video/sea2.mp4 HTTP/1.1" 304 - meteo-maree.info "http://meteo-maree.info/" "Mozilla/5.0 (Windows NT 10.0; Win64; x64) AppleWebKit/537.36 (KHTML, like Gecko) Chrome/85.0.4183.102 Safari/537.36" "-"
86.242.38.0 - - [15/Sep/2020:10:16:54 +0200] "GET /video/sea2.mp4 HTTP/1.1" 206 1702849 meteo-maree.info "http://meteo-maree.info/" "Mozilla/5.0 (Windows NT 10.0; Win64; x64) AppleWebKit/537.36 (KHTML, like Gecko) Chrome/85.0.4183.102 Safari/537.36" "-"
86.242.38.0 - - [15/Sep/2020:10:17:27 +0200] "GET /video/sea2.mp4 HTTP/1.1" 206 1671465 meteo-maree.info "http://meteo-maree.info/" "Mozilla/5.0 (iPhone; CPU iPhone OS 13_2_3 like Mac OS X) AppleWebKit/605.1.15 (KHTML, like Gecko) Version/13.0.3 Mobile/15E148 Safari/604.1" "-"
86.242.38.0 - - [15/Sep/2020:10:20:46 +0200] "GET / HTTP/1.1" 200 26395 meteo-maree.info "https://search.google.com/" "Mozilla/5.0 (Windows NT 10.0; Win64; x64) AppleWebKit/537.36 (KHTML, like Gecko) Chrome/85.0.4183.102 Safari/537.36" "-"
86.242.38.0 - - [15/Sep/2020:10:34:37 +0200] "GET / HTTP/1.1" 200 26395 meteo-maree.info "-" "Mozilla/5.0 (Windows NT 10.0; Win64; x64) AppleWebKit/537.36 (KHTML, like Gecko) Chrome/85.0.4183.102 Safari/537.36" "-"
86.242.38.0 - - [15/Sep/2020:10:34:37 +0200] "GET /css/styles.css HTTP/1.1" 304 - meteo-maree.info "https://meteo-maree.info/" "Mozilla/5.0 (Windows NT 10.0; Win64; x64) AppleWebKit/537.36 (KHTML, like Gecko) Chrome/85.0.4183.102 Safari/537.36" "-"
86.242.38.0 - - [15/Sep/2020:10:34:37 +0200] "GET /css/font-awesome.min.css HTTP/1.1" 304 - meteo-maree.info "https://meteo-maree.info/" "Mozilla/5.0 (Windows NT 10.0; Win64; x64) AppleWebKit/537.36 (KHTML, like Gecko) Chrome/85.0.4183.102 Safari/537.36" "-"
86.242.38.0 - - [15/Sep/2020:10:34:37 +0200] "GET /js/jquery-3.3.1.min.js HTTP/1.1" 304 - meteo-maree.info "https://meteo-maree.info/" "Mozilla/5.0 (Windows NT 10.0; Win64; x64) AppleWebKit/537.36 (KHTML, like Gecko) Chrome/85.0.4183.102 Safari/537.36" "-"
86.242.38.0 - - [15/Sep/2020:10:34:37 +0200] "GET /js/scripts.js HTTP/1.1" 304 - meteo-maree.info "https://meteo-maree.info/" "Mozilla/5.0 (Windows NT 10.0; Win64; x64) AppleWebKit/537.36 (KHTML, like Gecko) Chrome/85.0.4183.102 Safari/537.36" "-"
86.242.38.0 - - [15/Sep/2020:10:34:37 +0200] "GET /img/bg_footer.jpg HTTP/1.1" 304 - meteo-maree.info "https://meteo-maree.info/css/styles.css" "Mozilla/5.0 (Windows NT 10.0; Win64; x64) AppleWebKit/537.36 (KHTML, like Gecko) Chrome/85.0.4183.102 Safari/537.36" "-"
86.242.38.0 - - [15/Sep/2020:10:34:37 +0200] "GET /fonts/Roboto-Bold.woff2 HTTP/1.1" 304 - meteo-maree.info "https://meteo-maree.info/css/styles.css" "Mozilla/5.0 (Windows NT 10.0; Win64; x64) AppleWebKit/537.36 (KHTML, like Gecko) Chrome/85.0.4183.102 Safari/537.36" "-"
86.242.38.0 - - [15/Sep/2020:10:34:37 +0200] "GET /fonts/Roboto-Black.woff2 HTTP/1.1" 304 - meteo-maree.info "https://meteo-maree.info/css/styles.css" "Mozilla/5.0 (Windows NT 10.0; Win64; x64) AppleWebKit/537.36 (KHTML, like Gecko) Chrome/85.0.4183.102 Safari/537.36" "-"
86.242.38.0 - - [15/Sep/2020:10:34:37 +0200] "GET /fonts/Roboto-Medium.woff2 HTTP/1.1" 304 - meteo-maree.info "https://meteo-maree.info/css/styles.css" "Mozilla/5.0 (Windows NT 10.0; Win64; x64) AppleWebKit/537.36 (KHTML, like Gecko) Chrome/85.0.4183.102 Safari/537.36" "-"
86.242.38.0 - - [15/Sep/2020:10:34:37 +0200] "GET /fonts/Roboto-Regular.woff2 HTTP/1.1" 304 - meteo-maree.info "https://meteo-maree.info/css/styles.css" "Mozilla/5.0 (Windows NT 10.0; Win64; x64) AppleWebKit/537.36 (KHTML, like Gecko) Chrome/85.0.4183.102 Safari/537.36" "-"
86.242.38.0 - - [15/Sep/2020:10:34:37 +0200] "GET /fonts/fontawesome-webfont.woff2?v=4.7.0 HTTP/1.1" 304 - meteo-maree.info "https://meteo-maree.info/css/font-awesome.min.css" "Mozilla/5.0 (Windows NT 10.0; Win64; x64) AppleWebKit/537.36 (KHTML, like Gecko) Chrome/85.0.4183.102 Safari/537.36" "-"
86.242.38.0 - - [15/Sep/2020:10:34:38 +0200] "GET /video/sea2.mp4 HTTP/1.1" 304 - meteo-maree.info "https://meteo-maree.info/" "Mozilla/5.0 (Windows NT 10.0; Win64; x64) AppleWebKit/537.36 (KHTML, like Gecko) Chrome/85.0.4183.102 Safari/537.36" "-"
45.11.18.0 - - [15/Sep/2020:10:36:12 +0200] "GET / HTTP/1.1" 200 26395 meteo-maree.info "-" "Mozilla/5.0 (X11; Fedora; Linux x86_64; rv:47.0) Gecko/20100101 Firefox/47.0" "-"
37.235.53.0 - - [15/Sep/2020:10:36:12 +0200] "GET / HTTP/1.1" 200 26395 meteo-maree.info "-" "Mozilla/5.0 (X11; Fedora; Linux x86_64; rv:47.0) Gecko/20100101 Firefox/47.0" "-"
185.212.44.0 - - [15/Sep/2020:10:36:12 +0200] "GET / HTTP/1.1" 200 26395 meteo-maree.info "-" "user_agent: rc-crawler" "-"
176.9.44.0 - - [15/Sep/2020:10:36:13 +0200] "GET /robots.txt HTTP/1.1" 404 823 meteo-maree.info "-" "axios/0.19.0" "-"
176.9.16.0 - - [15/Sep/2020:10:36:13 +0200] "GET / HTTP/1.1" 200 26395 meteo-maree.info "-" "Mozilla/5.0 (X11; Fedora; Linux x86_64; rv:47.0) Gecko/20100101 Firefox/47.0" "-"
176.9.44.0 - - [15/Sep/2020:10:36:13 +0200] "GET / HTTP/1.1" 200 26395 meteo-maree.info "-" "Mozilla/5.0 (Macintosh; Intel Mac OS X 10_13_2) AppleWebKit/537.36 (KHTML, like Gecko) Chrome/69.0.3497.100 Safari/537.36" "-"
176.9.44.0 - - [15/Sep/2020:10:36:13 +0200] "GET /css/font-awesome.min.css HTTP/1.1" 200 31000 meteo-maree.info "http://meteo-maree.info/" "Mozilla/5.0 (Macintosh; Intel Mac OS X 10_13_2) AppleWebKit/537.36 (KHTML, like Gecko) Chrome/69.0.3497.100 Safari/537.36" "-"
176.9.44.0 - - [15/Sep/2020:10:36:13 +0200] "GET /css/styles.css HTTP/1.1" 200 28392 meteo-maree.info "http://meteo-maree.info/" "Mozilla/5.0 (Macintosh; Intel Mac OS X 10_13_2) AppleWebKit/537.36 (KHTML, like Gecko) Chrome/69.0.3497.100 Safari/537.36" "-"
176.9.20.0 - - [15/Sep/2020:10:36:13 +0200] "GET / HTTP/1.1" 200 26395 meteo-maree.info "-" "Mozilla/5.0 (Macintosh; Intel Mac OS X 10_13_2) AppleWebKit/537.36 (KHTML, like Gecko) Chrome/69.0.3497.100 Safari/537.36" "-"
176.9.44.0 - - [15/Sep/2020:10:36:13 +0200] "GET /js/jquery-3.3.1.min.js HTTP/1.1" 200 86927 meteo-maree.info "http://meteo-maree.info/" "Mozilla/5.0 (Macintosh; Intel Mac OS X 10_13_2) AppleWebKit/537.36 (KHTML, like Gecko) Chrome/69.0.3497.100 Safari/537.36" "-"
176.9.44.0 - - [15/Sep/2020:10:36:13 +0200] "GET /js/scripts.js HTTP/1.1" 200 11173 meteo-maree.info "http://meteo-maree.info/" "Mozilla/5.0 (Macintosh; Intel Mac OS X 10_13_2) AppleWebKit/537.36 (KHTML, like Gecko) Chrome/69.0.3497.100 Safari/537.36" "-"
176.9.44.0 - - [15/Sep/2020:10:36:13 +0200] "GET /img/bg_footer.jpg HTTP/1.1" 200 338710 meteo-maree.info "http://meteo-maree.info/css/styles.css" "Mozilla/5.0 (Macintosh; Intel Mac OS X 10_13_2) AppleWebKit/537.36 (KHTML, like Gecko) Chrome/69.0.3497.100 Safari/537.36" "-"
176.9.20.0 - - [15/Sep/2020:10:36:13 +0200] "GET /css/font-awesome.min.css HTTP/1.1" 200 31000 meteo-maree.info "http://meteo-maree.info/" "Mozilla/5.0 (Macintosh; Intel Mac OS X 10_13_2) AppleWebKit/537.36 (KHTML, like Gecko) Chrome/69.0.3497.100 Safari/537.36" "-"
176.9.20.0 - - [15/Sep/2020:10:36:13 +0200] "GET /css/styles.css HTTP/1.1" 200 28392 meteo-maree.info "http://meteo-maree.info/" "Mozilla/5.0 (Macintosh; Intel Mac OS X 10_13_2) AppleWebKit/537.36 (KHTML, like Gecko) Chrome/69.0.3497.100 Safari/537.36" "-"
176.9.20.0 - - [15/Sep/2020:10:36:13 +0200] "GET /js/jquery-3.3.1.min.js HTTP/1.1" 200 86927 meteo-maree.info "http://meteo-maree.info/" "Mozilla/5.0 (Macintosh; Intel Mac OS X 10_13_2) AppleWebKit/537.36 (KHTML, like Gecko) Chrome/69.0.3497.100 Safari/537.36" "-"
176.9.20.0 - - [15/Sep/2020:10:36:13 +0200] "GET /js/scripts.js HTTP/1.1" 200 11173 meteo-maree.info "http://meteo-maree.info/" "Mozilla/5.0 (Macintosh; Intel Mac OS X 10_13_2) AppleWebKit/537.36 (KHTML, like Gecko) Chrome/69.0.3497.100 Safari/537.36" "-"
176.9.20.0 - - [15/Sep/2020:10:36:13 +0200] "GET /img/bg_footer.jpg HTTP/1.1" 200 338710 meteo-maree.info "http://meteo-maree.info/css/styles.css" "Mozilla/5.0 (Macintosh; Intel Mac OS X 10_13_2) AppleWebKit/537.36 (KHTML, like Gecko) Chrome/69.0.3497.100 Safari/537.36" "-"
3.125.119.0 - - [15/Sep/2020:10:36:13 +0200] "GET / HTTP/1.1" 200 26395 meteo-maree.info "-" "\"Mozilla/5.0 (Macintosh; Intel Mac OS X 10_13_2) AppleWebKit/537.36 (KHTML, like Gecko) Chrome/69.0.3497.100 Safari/537.36" "-"
3.125.119.0 - - [15/Sep/2020:10:36:13 +0200] "GET /css/font-awesome.min.css HTTP/1.1" 200 31000 meteo-maree.info "http://meteo-maree.info/" "\"Mozilla/5.0 (Macintosh; Intel Mac OS X 10_13_2) AppleWebKit/537.36 (KHTML, like Gecko) Chrome/69.0.3497.100 Safari/537.36" "-"
3.125.119.0 - - [15/Sep/2020:10:36:13 +0200] "GET /css/styles.css HTTP/1.1" 200 28392 meteo-maree.info "http://meteo-maree.info/" "\"Mozilla/5.0 (Macintosh; Intel Mac OS X 10_13_2) AppleWebKit/537.36 (KHTML, like Gecko) Chrome/69.0.3497.100 Safari/537.36" "-"
176.9.44.0 - - [15/Sep/2020:10:36:13 +0200] "GET /video/sea2.webm HTTP/1.1" 300 544 meteo-maree.info "http://meteo-maree.info/" "Mozilla/5.0 (Macintosh; Intel Mac OS X 10_13_2) AppleWebKit/537.36 (KHTML, like Gecko) Chrome/69.0.3497.100 Safari/537.36" "-"
176.9.44.0 - - [15/Sep/2020:10:36:13 +0200] "GET /fonts/Roboto-Bold.woff2 HTTP/1.1" 200 65972 meteo-maree.info "http://meteo-maree.info/css/styles.css" "Mozilla/5.0 (Macintosh; Intel Mac OS X 10_13_2) AppleWebKit/537.36 (KHTML, like Gecko) Chrome/69.0.3497.100 Safari/537.36" "-"
176.9.44.0 - - [15/Sep/2020:10:36:13 +0200] "GET /fonts/Roboto-Medium.woff2 HTTP/1.1" 200 66792 meteo-maree.info "http://meteo-maree.info/css/styles.css" "Mozilla/5.0 (Macintosh; Intel Mac OS X 10_13_2) AppleWebKit/537.36 (KHTML, like Gecko) Chrome/69.0.3497.100 Safari/537.36" "-"
176.9.44.0 - - [15/Sep/2020:10:36:13 +0200] "GET /fonts/Roboto-Regular.woff2 HTTP/1.1" 200 65916 meteo-maree.info "http://meteo-maree.info/css/styles.css" "Mozilla/5.0 (Macintosh; Intel Mac OS X 10_13_2) AppleWebKit/537.36 (KHTML, like Gecko) Chrome/69.0.3497.100 Safari/537.36" "-"
176.9.44.0 - - [15/Sep/2020:10:36:13 +0200] "GET /fonts/fontawesome-webfont.woff2?v=4.7.0 HTTP/1.1" 200 77160 meteo-maree.info "http://meteo-maree.info/css/font-awesome.min.css" "Mozilla/5.0 (Macintosh; Intel Mac OS X 10_13_2) AppleWebKit/537.36 (KHTML, like Gecko) Chrome/69.0.3497.100 Safari/537.36" "-"
176.9.44.0 - - [15/Sep/2020:10:36:13 +0200] "GET /fonts/Roboto-Black.woff2 HTTP/1.1" 200 66148 meteo-maree.info "http://meteo-maree.info/css/styles.css" "Mozilla/5.0 (Macintosh; Intel Mac OS X 10_13_2) AppleWebKit/537.36 (KHTML, like Gecko) Chrome/69.0.3497.100 Safari/537.36" "-"
176.9.20.0 - - [15/Sep/2020:10:36:13 +0200] "GET /fonts/Roboto-Bold.woff2 HTTP/1.1" 200 65972 meteo-maree.info "http://meteo-maree.info/css/styles.css" "Mozilla/5.0 (Macintosh; Intel Mac OS X 10_13_2) AppleWebKit/537.36 (KHTML, like Gecko) Chrome/69.0.3497.100 Safari/537.36" "-"
3.125.119.0 - - [15/Sep/2020:10:36:13 +0200] "GET /js/jquery-3.3.1.min.js HTTP/1.1" 200 86927 meteo-maree.info "http://meteo-maree.info/" "\"Mozilla/5.0 (Macintosh; Intel Mac OS X 10_13_2) AppleWebKit/537.36 (KHTML, like Gecko) Chrome/69.0.3497.100 Safari/537.36" "-"
3.125.119.0 - - [15/Sep/2020:10:36:13 +0200] "GET /js/scripts.js HTTP/1.1" 200 11173 meteo-maree.info "http://meteo-maree.info/" "\"Mozilla/5.0 (Macintosh; Intel Mac OS X 10_13_2) AppleWebKit/537.36 (KHTML, like Gecko) Chrome/69.0.3497.100 Safari/537.36" "-"
176.9.20.0 - - [15/Sep/2020:10:36:13 +0200] "GET /video/sea2.webm HTTP/1.1" 300 544 meteo-maree.info "http://meteo-maree.info/" "Mozilla/5.0 (Macintosh; Intel Mac OS X 10_13_2) AppleWebKit/537.36 (KHTML, like Gecko) Chrome/69.0.3497.100 Safari/537.36" "-"
176.9.20.0 - - [15/Sep/2020:10:36:13 +0200] "GET /fonts/fontawesome-webfont.woff2?v=4.7.0 HTTP/1.1" 200 77160 meteo-maree.info "http://meteo-maree.info/css/font-awesome.min.css" "Mozilla/5.0 (Macintosh; Intel Mac OS X 10_13_2) AppleWebKit/537.36 (KHTML, like Gecko) Chrome/69.0.3497.100 Safari/537.36" "-"
176.9.20.0 - - [15/Sep/2020:10:36:13 +0200] "GET /fonts/Roboto-Medium.woff2 HTTP/1.1" 200 66792 meteo-maree.info "http://meteo-maree.info/css/styles.css" "Mozilla/5.0 (Macintosh; Intel Mac OS X 10_13_2) AppleWebKit/537.36 (KHTML, like Gecko) Chrome/69.0.3497.100 Safari/537.36" "-"
176.9.20.0 - - [15/Sep/2020:10:36:13 +0200] "GET /fonts/Roboto-Black.woff2 HTTP/1.1" 200 66148 meteo-maree.info "http://meteo-maree.info/css/styles.css" "Mozilla/5.0 (Macintosh; Intel Mac OS X 10_13_2) AppleWebKit/537.36 (KHTML, like Gecko) Chrome/69.0.3497.100 Safari/537.36" "-"
176.9.20.0 - - [15/Sep/2020:10:36:13 +0200] "GET /fonts/Roboto-Regular.woff2 HTTP/1.1" 200 65916 meteo-maree.info "http://meteo-maree.info/css/styles.css" "Mozilla/5.0 (Macintosh; Intel Mac OS X 10_13_2) AppleWebKit/537.36 (KHTML, like Gecko) Chrome/69.0.3497.100 Safari/537.36" "-"
176.9.44.0 - - [15/Sep/2020:10:36:13 +0200] "GET /video/sea2.mp4 HTTP/1.1" 206 11370793 meteo-maree.info "http://meteo-maree.info/" "Mozilla/5.0 (Macintosh; Intel Mac OS X 10_13_2) AppleWebKit/537.36 (KHTML, like Gecko) Chrome/69.0.3497.100 Safari/537.36" "-"
3.125.119.0 - - [15/Sep/2020:10:36:13 +0200] "GET /img/bg_footer.jpg HTTP/1.1" 200 338710 meteo-maree.info "http://meteo-maree.info/css/styles.css" "\"Mozilla/5.0 (Macintosh; Intel Mac OS X 10_13_2) AppleWebKit/537.36 (KHTML, like Gecko) Chrome/69.0.3497.100 Safari/537.36" "-"
176.9.20.0 - - [15/Sep/2020:10:36:13 +0200] "GET /video/sea2.mp4 HTTP/1.1" 206 11370793 meteo-maree.info "http://meteo-maree.info/" "Mozilla/5.0 (Macintosh; Intel Mac OS X 10_13_2) AppleWebKit/537.36 (KHTML, like Gecko) Chrome/69.0.3497.100 Safari/537.36" "-"
3.125.119.0 - - [15/Sep/2020:10:36:13 +0200] "GET /video/sea2.webm HTTP/1.1" 300 544 meteo-maree.info "http://meteo-maree.info/" "\"Mozilla/5.0 (Macintosh; Intel Mac OS X 10_13_2) AppleWebKit/537.36 (KHTML, like Gecko) Chrome/69.0.3497.100 Safari/537.36" "-"
3.125.119.0 - - [15/Sep/2020:10:36:14 +0200] "GET /fonts/Roboto-Bold.woff2 HTTP/1.1" 200 65972 meteo-maree.info "http://meteo-maree.info/css/styles.css" "\"Mozilla/5.0 (Macintosh; Intel Mac OS X 10_13_2) AppleWebKit/537.36 (KHTML, like Gecko) Chrome/69.0.3497.100 Safari/537.36" "-"
3.125.119.0 - - [15/Sep/2020:10:36:14 +0200] "GET /fonts/Roboto-Medium.woff2 HTTP/1.1" 200 66792 meteo-maree.info "http://meteo-maree.info/css/styles.css" "\"Mozilla/5.0 (Macintosh; Intel Mac OS X 10_13_2) AppleWebKit/537.36 (KHTML, like Gecko) Chrome/69.0.3497.100 Safari/537.36" "-"
3.125.119.0 - - [15/Sep/2020:10:36:14 +0200] "GET /fonts/Roboto-Regular.woff2 HTTP/1.1" 200 65916 meteo-maree.info "http://meteo-maree.info/css/styles.css" "\"Mozilla/5.0 (Macintosh; Intel Mac OS X 10_13_2) AppleWebKit/537.36 (KHTML, like Gecko) Chrome/69.0.3497.100 Safari/537.36" "-"
3.125.119.0 - - [15/Sep/2020:10:36:14 +0200] "GET /fonts/fontawesome-webfont.woff2?v=4.7.0 HTTP/1.1" 200 77160 meteo-maree.info "http://meteo-maree.info/css/font-awesome.min.css" "\"Mozilla/5.0 (Macintosh; Intel Mac OS X 10_13_2) AppleWebKit/537.36 (KHTML, like Gecko) Chrome/69.0.3497.100 Safari/537.36" "-"
3.125.119.0 - - [15/Sep/2020:10:36:14 +0200] "GET /fonts/Roboto-Black.woff2 HTTP/1.1" 200 66148 meteo-maree.info "http://meteo-maree.info/css/styles.css" "\"Mozilla/5.0 (Macintosh; Intel Mac OS X 10_13_2) AppleWebKit/537.36 (KHTML, like Gecko) Chrome/69.0.3497.100 Safari/537.36" "-"
3.125.119.0 - - [15/Sep/2020:10:36:14 +0200] "GET /video/sea2.mp4 HTTP/1.1" 206 11370793 meteo-maree.info "http://meteo-maree.info/" "\"Mozilla/5.0 (Macintosh; Intel Mac OS X 10_13_2) AppleWebKit/537.36 (KHTML, like Gecko) Chrome/69.0.3497.100 Safari/537.36" "-"
176.9.16.0 - - [15/Sep/2020:10:36:14 +0200] "GET /robots.txt HTTP/1.1" 404 823 meteo-maree.info "-" "-" "-"
176.9.16.0 - - [15/Sep/2020:10:36:14 +0200] "GET / HTTP/1.1" 200 26395 meteo-maree.info "-" "rc-crawler" "-"
176.9.16.0 - - [15/Sep/2020:10:36:14 +0200] "GET /index.php HTTP/1.1" 200 26395 meteo-maree.info "-" "rc-crawler" "-"
66.249.81.0 - - [15/Sep/2020:10:36:15 +0200] "GET / HTTP/1.1" 200 26395 meteo-maree.info "-" "Mozilla/5.0 (Linux; Android 7.0; Moto G (4)) AppleWebKit/537.36 (KHTML, like Gecko) Chrome/84.0.4143.7 Mobile Safari/537.36 Chrome-Lighthouse" "-"
66.249.81.0 - - [15/Sep/2020:10:36:15 +0200] "GET /css/styles.css HTTP/1.1" 200 28392 meteo-maree.info "http://meteo-maree.info/" "Mozilla/5.0 (Linux; Android 7.0; Moto G (4)) AppleWebKit/537.36 (KHTML, like Gecko) Chrome/84.0.4143.7 Mobile Safari/537.36 Chrome-Lighthouse" "-"
66.249.81.0 - - [15/Sep/2020:10:36:15 +0200] "GET /css/font-awesome.min.css HTTP/1.1" 200 31000 meteo-maree.info "http://meteo-maree.info/" "Mozilla/5.0 (Linux; Android 7.0; Moto G (4)) AppleWebKit/537.36 (KHTML, like Gecko) Chrome/84.0.4143.7 Mobile Safari/537.36 Chrome-Lighthouse" "-"
66.249.81.0 - - [15/Sep/2020:10:36:15 +0200] "GET /js/scripts.js HTTP/1.1" 200 11173 meteo-maree.info "http://meteo-maree.info/" "Mozilla/5.0 (Linux; Android 7.0; Moto G (4)) AppleWebKit/537.36 (KHTML, like Gecko) Chrome/84.0.4143.7 Mobile Safari/537.36 Chrome-Lighthouse" "-"
66.249.81.0 - - [15/Sep/2020:10:36:15 +0200] "GET /js/jquery-3.3.1.min.js HTTP/1.1" 200 86927 meteo-maree.info "http://meteo-maree.info/" "Mozilla/5.0 (Linux; Android 7.0; Moto G (4)) AppleWebKit/537.36 (KHTML, like Gecko) Chrome/84.0.4143.7 Mobile Safari/537.36 Chrome-Lighthouse" "-"
66.249.81.0 - - [15/Sep/2020:10:36:15 +0200] "GET /img/bg_footer.jpg HTTP/1.1" 200 338710 meteo-maree.info "http://meteo-maree.info/css/styles.css" "Mozilla/5.0 (Linux; Android 7.0; Moto G (4)) AppleWebKit/537.36 (KHTML, like Gecko) Chrome/84.0.4143.7 Mobile Safari/537.36 Chrome-Lighthouse" "-"
66.249.81.0 - - [15/Sep/2020:10:36:15 +0200] "GET /fonts/Roboto-Medium.woff2 HTTP/1.1" 200 66792 meteo-maree.info "http://meteo-maree.info/css/styles.css" "Mozilla/5.0 (Linux; Android 7.0; Moto G (4)) AppleWebKit/537.36 (KHTML, like Gecko) Chrome/84.0.4143.7 Mobile Safari/537.36 Chrome-Lighthouse" "-"
66.249.81.0 - - [15/Sep/2020:10:36:15 +0200] "GET /fonts/Roboto-Bold.woff2 HTTP/1.1" 200 65972 meteo-maree.info "http://meteo-maree.info/css/styles.css" "Mozilla/5.0 (Linux; Android 7.0; Moto G (4)) AppleWebKit/537.36 (KHTML, like Gecko) Chrome/84.0.4143.7 Mobile Safari/537.36 Chrome-Lighthouse" "-"
66.249.81.0 - - [15/Sep/2020:10:36:15 +0200] "GET /fonts/Roboto-Black.woff2 HTTP/1.1" 200 66148 meteo-maree.info "http://meteo-maree.info/css/styles.css" "Mozilla/5.0 (Linux; Android 7.0; Moto G (4)) AppleWebKit/537.36 (KHTML, like Gecko) Chrome/84.0.4143.7 Mobile Safari/537.36 Chrome-Lighthouse" "-"
66.249.81.0 - - [15/Sep/2020:10:36:15 +0200] "GET /fonts/fontawesome-webfont.woff2?v=4.7.0 HTTP/1.1" 200 77160 meteo-maree.info "http://meteo-maree.info/css/font-awesome.min.css" "Mozilla/5.0 (Linux; Android 7.0; Moto G (4)) AppleWebKit/537.36 (KHTML, like Gecko) Chrome/84.0.4143.7 Mobile Safari/537.36 Chrome-Lighthouse" "-"
66.249.81.0 - - [15/Sep/2020:10:36:15 +0200] "GET /fonts/Roboto-Regular.woff2 HTTP/1.1" 200 65916 meteo-maree.info "http://meteo-maree.info/css/styles.css" "Mozilla/5.0 (Linux; Android 7.0; Moto G (4)) AppleWebKit/537.36 (KHTML, like Gecko) Chrome/84.0.4143.7 Mobile Safari/537.36 Chrome-Lighthouse" "-"
66.249.81.0 - - [15/Sep/2020:10:36:15 +0200] "GET /video/sea2.webm HTTP/1.1" 300 544 meteo-maree.info "http://meteo-maree.info/" "Mozilla/5.0 (Linux; Android 7.0; Moto G (4)) AppleWebKit/537.36 (KHTML, like Gecko) Chrome/84.0.4143.7 Mobile Safari/537.36 Chrome-Lighthouse" "-"
66.249.81.0 - - [15/Sep/2020:10:36:15 +0200] "GET /video/sea2.mp4 HTTP/1.1" 206 11370793 meteo-maree.info "http://meteo-maree.info/" "Mozilla/5.0 (Linux; Android 7.0; Moto G (4)) AppleWebKit/537.36 (KHTML, like Gecko) Chrome/84.0.4143.7 Mobile Safari/537.36 Chrome-Lighthouse" "-"
66.249.81.0 - - [15/Sep/2020:10:36:17 +0200] "GET / HTTP/1.1" 200 26395 meteo-maree.info "-" "Mozilla/5.0 (Linux; Android 7.0; Moto G (4)) AppleWebKit/537.36 (KHTML, like Gecko) Chrome/84.0.4143.7 Mobile Safari/537.36 Chrome-Lighthouse" "-"
66.249.81.0 - - [15/Sep/2020:10:36:18 +0200] "GET /asset-manifest.json HTTP/1.1" 404 823 meteo-maree.info "http://meteo-maree.info/" "Mozilla/5.0 (Linux; Android 7.0; Moto G (4)) AppleWebKit/537.36 (KHTML, like Gecko) Chrome/84.0.4143.7 Mobile Safari/537.36 Chrome-Lighthouse" "-"
3.236.249.0 - - [15/Sep/2020:10:59:18 +0200] "GET / HTTP/1.1" 200 26395 meteo-maree.info "-" "Scrapy/2.2.1 (+https://scrapy.org)" "-"
